Desc Mode Table              TableOID ReferencedColumns                                                    PIO LIO  PBE Elapsed Rows   
DSS  PM   region             4622     (r_name)                                                             0   1    -   0.000   1      
BPS  PM   region             4622     (r_name,r_regionkey)                                                 0   5    0   0.004   1      
HJS  PM   region-region      4622     -                                                                    -   -    -   -----   -      
BPS  PM   nation             4615     (n_nationkey,n_regionkey)                                            0   3    0   0.004   5      
HJS  PM   nation-region      4615     -                                                                    -   -    -   -----   -      
BPS  PM   supplier           4644     (s_nationkey,s_suppkey)                                              0   11   0   0.004   2019   
HJS  PM   supplier-nation    4644     -                                                                    -   -    -   -----   -      
BPS  PM   partsupp           4656     (ps_partkey,ps_suppkey,ps_supplycost)                                0   8973 0   0.083   119041 
HJS  PM   partsupp-supplier  4656     -                                                                    -   -    -   -----   -      
TAS  UM   -                  -        -                                                                    -   -    -   0.081   119041 
TNS  UM   -                  -        -                                                                    -   -    -   0.010   119041 
DSS  PM   region             4622     (r_name)                                                             0   1    -   0.000   1      
BPS  PM   region             4622     (r_name,r_regionkey)                                                 0   5    0   0.004   1      
HJS  PM   region-region      4622     -                                                                    -   -    -   -----   -      
BPS  PM   nation             4615     (n_name,n_nationkey,n_regionkey)                                     0   5    0   0.002   5      
HJS  PM   nation-region      4615     -                                                                    -   -    -   -----   -      
BPS  PM   supplier           4644     (s_acctbal,s_address,s_comment,s_name,s_nationkey,s_phone,s_suppkey) 0   225  0   0.019   2019   
HJS  PM   supplier-nation    4644     -                                                                    -   -    -   -----   -      
DSS  PM   part               4628     (p_type)                                                             0   1    -   0.000   30     
BPS  PM   part               4628     (p_mfgr,p_partkey,p_size,p_type)                                     0   614  0   0.015   811    
HJS  PM   part-part          4628     -                                                                    -   -    -   -----   -      
BPS  PM   partsupp           4656     (ps_partkey,ps_suppkey,ps_supplycost)                                0   1566 0   0.077   476    
HJS  PM   partsupp-part      4656     -                                                                    -   -    -   -----   -      
HJS  PM   partsupp-supplier  4656     -                                                                    -   -    -   -----   -      
HJS  PM   partsupp-min_costs 4656     -                                                                    -   -    -   -----   -      
TNS  UM   -                  -        -                                                                    -   -    -   0.211   100

