{
	"stages" : [
		{
			"$cursor" : {
				"query" : {
					
				},
				"fields" : {
					"customer.c_name" : 1,
					"o_custkey" : 1,
					"o_lineitems" : 1,
					"o_orderdate" : 1,
					"o_orderkey" : 1,
					"o_totalprice" : 1,
					"sum_qty" : 1,
					"_id" : 0
				},
				"queryPlanner" : {
					"plannerVersion" : 1,
					"namespace" : "tpch_1.orderlineitems",
					"indexFilterSet" : false,
					"parsedQuery" : {
						
					},
					"winningPlan" : {
						"stage" : "COLLSCAN",
						"direction" : "forward"
					},
					"rejectedPlans" : [ ]
				},
				"executionStats" : {
					"executionSuccess" : true,
					"nReturned" : 37500000,
					"executionTimeMillis" : 548083,
					"totalKeysExamined" : 0,
					"totalDocsExamined" : 37500000,
					"executionStages" : {
						"stage" : "COLLSCAN",
						"nReturned" : 37500000,
						"executionTimeMillisEstimate" : 31200,
						"works" : 37500002,
						"advanced" : 37500000,
						"needTime" : 1,
						"needYield" : 0,
						"saveState" : 339367,
						"restoreState" : 339367,
						"isEOF" : 1,
						"invalidates" : 0,
						"direction" : "forward",
						"docsExamined" : 37500000
					},
					"allPlansExecution" : [ ]
				}
			}
		},
		{
			"$addFields" : {
				"sum_qty" : {
					"$sum" : [
						{
							"$map" : {
								"input" : "$o_lineitems",
								"as" : "l",
								"in" : "$$l.l_quantity"
							}
						}
					]
				}
			}
		},
		{
			"$match" : {
				"sum_qty" : {
					"$gt" : 313
				}
			}
		},
		{
			"$lookup" : {
				"from" : "customer",
				"as" : "customer",
				"localField" : "o_custkey",
				"foreignField" : "_id",
				"unwinding" : {
					"preserveNullAndEmptyArrays" : false
				}
			}
		},
		{
			"$project" : {
				"sum_qty" : true,
				"o_orderdate" : true,
				"o_totalprice" : true,
				"o_orderkey" : true,
				"_id" : "$o_custkey",
				"c_name" : "$customer.c_name"
			}
		},
		{
			"$sort" : {
				"sortKey" : {
					"o_totalprice" : -1,
					"o_orderdate" : 1
				},
				"limit" : NumberLong(100)
			}
		}
	],
	"serverInfo" : {
		"host" : "dblab.cecsresearch.org",
		"port" : 27017,
		"version" : "4.0.19",
		"gitVersion" : "7e28f4296a04d858a2e3dd84a1e79c9ba59a9568"
	},
	"ok" : 1
}


{
	"stages" : [
		{
			"$cursor" : {
				"query" : {
					
				},
				"fields" : {
					"customer.c_name" : 1,
					"o_custkey" : 1,
					"o_lineitems" : 1,
					"o_orderdate" : 1,
					"o_orderkey" : 1,
					"o_totalprice" : 1,
					"sum_qty" : 1,
					"_id" : 0
				},
				"queryPlanner" : {
					"plannerVersion" : 1,
					"namespace" : "tpch_1.orderlineitems",
					"indexFilterSet" : false,
					"parsedQuery" : {
						
					},
					"winningPlan" : {
						"stage" : "COLLSCAN",
						"direction" : "forward"
					},
					"rejectedPlans" : [ ]
				},
				"executionStats" : {
					"executionSuccess" : true,
					"nReturned" : 37500000,
					"executionTimeMillis" : 549490,
					"totalKeysExamined" : 0,
					"totalDocsExamined" : 37500000,
					"executionStages" : {
						"stage" : "COLLSCAN",
						"nReturned" : 37500000,
						"executionTimeMillisEstimate" : 30218,
						"works" : 37500002,
						"advanced" : 37500000,
						"needTime" : 1,
						"needYield" : 0,
						"saveState" : 339331,
						"restoreState" : 339331,
						"isEOF" : 1,
						"invalidates" : 0,
						"direction" : "forward",
						"docsExamined" : 37500000
					},
					"allPlansExecution" : [ ]
				}
			}
		},
		{
			"$addFields" : {
				"sum_qty" : {
					"$sum" : [
						{
							"$map" : {
								"input" : "$o_lineitems",
								"as" : "l",
								"in" : "$$l.l_quantity"
							}
						}
					]
				}
			}
		},
		{
			"$match" : {
				"sum_qty" : {
					"$gt" : 313
				}
			}
		},
		{
			"$lookup" : {
				"from" : "customer",
				"as" : "customer",
				"localField" : "o_custkey",
				"foreignField" : "_id",
				"unwinding" : {
					"preserveNullAndEmptyArrays" : false
				}
			}
		},
		{
			"$project" : {
				"sum_qty" : true,
				"o_orderdate" : true,
				"o_totalprice" : true,
				"o_orderkey" : true,
				"_id" : "$o_custkey",
				"c_name" : "$customer.c_name"
			}
		},
		{
			"$sort" : {
				"sortKey" : {
					"o_totalprice" : -1,
					"o_orderdate" : 1
				},
				"limit" : NumberLong(100)
			}
		}
	],
	"serverInfo" : {
		"host" : "dblab.cecsresearch.org",
		"port" : 27017,
		"version" : "4.0.19",
		"gitVersion" : "7e28f4296a04d858a2e3dd84a1e79c9ba59a9568"
	},
	"ok" : 1
}


{
	"stages" : [
		{
			"$cursor" : {
				"query" : {
					
				},
				"fields" : {
					"customer.c_name" : 1,
					"o_custkey" : 1,
					"o_lineitems" : 1,
					"o_orderdate" : 1,
					"o_orderkey" : 1,
					"o_totalprice" : 1,
					"sum_qty" : 1,
					"_id" : 0
				},
				"queryPlanner" : {
					"plannerVersion" : 1,
					"namespace" : "tpch_1.orderlineitems",
					"indexFilterSet" : false,
					"parsedQuery" : {
						
					},
					"winningPlan" : {
						"stage" : "COLLSCAN",
						"direction" : "forward"
					},
					"rejectedPlans" : [ ]
				},
				"executionStats" : {
					"executionSuccess" : true,
					"nReturned" : 37500000,
					"executionTimeMillis" : 550396,
					"totalKeysExamined" : 0,
					"totalDocsExamined" : 37500000,
					"executionStages" : {
						"stage" : "COLLSCAN",
						"nReturned" : 37500000,
						"executionTimeMillisEstimate" : 31702,
						"works" : 37500002,
						"advanced" : 37500000,
						"needTime" : 1,
						"needYield" : 0,
						"saveState" : 339352,
						"restoreState" : 339352,
						"isEOF" : 1,
						"invalidates" : 0,
						"direction" : "forward",
						"docsExamined" : 37500000
					},
					"allPlansExecution" : [ ]
				}
			}
		},
		{
			"$addFields" : {
				"sum_qty" : {
					"$sum" : [
						{
							"$map" : {
								"input" : "$o_lineitems",
								"as" : "l",
								"in" : "$$l.l_quantity"
							}
						}
					]
				}
			}
		},
		{
			"$match" : {
				"sum_qty" : {
					"$gt" : 313
				}
			}
		},
		{
			"$lookup" : {
				"from" : "customer",
				"as" : "customer",
				"localField" : "o_custkey",
				"foreignField" : "_id",
				"unwinding" : {
					"preserveNullAndEmptyArrays" : false
				}
			}
		},
		{
			"$project" : {
				"sum_qty" : true,
				"o_orderdate" : true,
				"o_totalprice" : true,
				"o_orderkey" : true,
				"_id" : "$o_custkey",
				"c_name" : "$customer.c_name"
			}
		},
		{
			"$sort" : {
				"sortKey" : {
					"o_totalprice" : -1,
					"o_orderdate" : 1
				},
				"limit" : NumberLong(100)
			}
		}
	],
	"serverInfo" : {
		"host" : "dblab.cecsresearch.org",
		"port" : 27017,
		"version" : "4.0.19",
		"gitVersion" : "7e28f4296a04d858a2e3dd84a1e79c9ba59a9568"
	},
	"ok" : 1
}


{
	"stages" : [
		{
			"$cursor" : {
				"query" : {
					
				},
				"fields" : {
					"customer.c_name" : 1,
					"o_custkey" : 1,
					"o_lineitems" : 1,
					"o_orderdate" : 1,
					"o_orderkey" : 1,
					"o_totalprice" : 1,
					"sum_qty" : 1,
					"_id" : 0
				},
				"queryPlanner" : {
					"plannerVersion" : 1,
					"namespace" : "tpch_1.orderlineitems",
					"indexFilterSet" : false,
					"parsedQuery" : {
						
					},
					"winningPlan" : {
						"stage" : "COLLSCAN",
						"direction" : "forward"
					},
					"rejectedPlans" : [ ]
				},
				"executionStats" : {
					"executionSuccess" : true,
					"nReturned" : 37500000,
					"executionTimeMillis" : 550569,
					"totalKeysExamined" : 0,
					"totalDocsExamined" : 37500000,
					"executionStages" : {
						"stage" : "COLLSCAN",
						"nReturned" : 37500000,
						"executionTimeMillisEstimate" : 32342,
						"works" : 37500002,
						"advanced" : 37500000,
						"needTime" : 1,
						"needYield" : 0,
						"saveState" : 339370,
						"restoreState" : 339370,
						"isEOF" : 1,
						"invalidates" : 0,
						"direction" : "forward",
						"docsExamined" : 37500000
					},
					"allPlansExecution" : [ ]
				}
			}
		},
		{
			"$addFields" : {
				"sum_qty" : {
					"$sum" : [
						{
							"$map" : {
								"input" : "$o_lineitems",
								"as" : "l",
								"in" : "$$l.l_quantity"
							}
						}
					]
				}
			}
		},
		{
			"$match" : {
				"sum_qty" : {
					"$gt" : 313
				}
			}
		},
		{
			"$lookup" : {
				"from" : "customer",
				"as" : "customer",
				"localField" : "o_custkey",
				"foreignField" : "_id",
				"unwinding" : {
					"preserveNullAndEmptyArrays" : false
				}
			}
		},
		{
			"$project" : {
				"sum_qty" : true,
				"o_orderdate" : true,
				"o_totalprice" : true,
				"o_orderkey" : true,
				"_id" : "$o_custkey",
				"c_name" : "$customer.c_name"
			}
		},
		{
			"$sort" : {
				"sortKey" : {
					"o_totalprice" : -1,
					"o_orderdate" : 1
				},
				"limit" : NumberLong(100)
			}
		}
	],
	"serverInfo" : {
		"host" : "dblab.cecsresearch.org",
		"port" : 27017,
		"version" : "4.0.19",
		"gitVersion" : "7e28f4296a04d858a2e3dd84a1e79c9ba59a9568"
	},
	"ok" : 1
}


{
	"stages" : [
		{
			"$cursor" : {
				"query" : {
					
				},
				"fields" : {
					"customer.c_name" : 1,
					"o_custkey" : 1,
					"o_lineitems" : 1,
					"o_orderdate" : 1,
					"o_orderkey" : 1,
					"o_totalprice" : 1,
					"sum_qty" : 1,
					"_id" : 0
				},
				"queryPlanner" : {
					"plannerVersion" : 1,
					"namespace" : "tpch_1.orderlineitems",
					"indexFilterSet" : false,
					"parsedQuery" : {
						
					},
					"winningPlan" : {
						"stage" : "COLLSCAN",
						"direction" : "forward"
					},
					"rejectedPlans" : [ ]
				},
				"executionStats" : {
					"executionSuccess" : true,
					"nReturned" : 37500000,
					"executionTimeMillis" : 552334,
					"totalKeysExamined" : 0,
					"totalDocsExamined" : 37500000,
					"executionStages" : {
						"stage" : "COLLSCAN",
						"nReturned" : 37500000,
						"executionTimeMillisEstimate" : 29827,
						"works" : 37500002,
						"advanced" : 37500000,
						"needTime" : 1,
						"needYield" : 0,
						"saveState" : 339341,
						"restoreState" : 339341,
						"isEOF" : 1,
						"invalidates" : 0,
						"direction" : "forward",
						"docsExamined" : 37500000
					},
					"allPlansExecution" : [ ]
				}
			}
		},
		{
			"$addFields" : {
				"sum_qty" : {
					"$sum" : [
						{
							"$map" : {
								"input" : "$o_lineitems",
								"as" : "l",
								"in" : "$$l.l_quantity"
							}
						}
					]
				}
			}
		},
		{
			"$match" : {
				"sum_qty" : {
					"$gt" : 313
				}
			}
		},
		{
			"$lookup" : {
				"from" : "customer",
				"as" : "customer",
				"localField" : "o_custkey",
				"foreignField" : "_id",
				"unwinding" : {
					"preserveNullAndEmptyArrays" : false
				}
			}
		},
		{
			"$project" : {
				"sum_qty" : true,
				"o_orderdate" : true,
				"o_totalprice" : true,
				"o_orderkey" : true,
				"_id" : "$o_custkey",
				"c_name" : "$customer.c_name"
			}
		},
		{
			"$sort" : {
				"sortKey" : {
					"o_totalprice" : -1,
					"o_orderdate" : 1
				},
				"limit" : NumberLong(100)
			}
		}
	],
	"serverInfo" : {
		"host" : "dblab.cecsresearch.org",
		"port" : 27017,
		"version" : "4.0.19",
		"gitVersion" : "7e28f4296a04d858a2e3dd84a1e79c9ba59a9568"
	},
	"ok" : 1
}


