{
	"stages" : [
		{
			"$cursor" : {
				"query" : {
					
				},
				"fields" : {
					"c_orders" : 1,
					"_id" : 0
				},
				"queryPlanner" : {
					"plannerVersion" : 1,
					"namespace" : "tpch_1.scale1",
					"indexFilterSet" : false,
					"parsedQuery" : {
						
					},
					"winningPlan" : {
						"stage" : "COLLSCAN",
						"direction" : "forward"
					},
					"rejectedPlans" : [ ]
				},
				"executionStats" : {
					"executionSuccess" : true,
					"nReturned" : 3750000,
					"executionTimeMillis" : 563700,
					"totalKeysExamined" : 0,
					"totalDocsExamined" : 3750000,
					"executionStages" : {
						"stage" : "COLLSCAN",
						"nReturned" : 3750000,
						"executionTimeMillisEstimate" : 70051,
						"works" : 3750002,
						"advanced" : 3750000,
						"needTime" : 1,
						"needYield" : 0,
						"saveState" : 90164,
						"restoreState" : 90164,
						"isEOF" : 1,
						"invalidates" : 0,
						"direction" : "forward",
						"docsExamined" : 3750000
					},
					"allPlansExecution" : [ ]
				}
			}
		},
		{
			"$unwind" : {
				"path" : "$c_orders"
			}
		},
		{
			"$project" : {
				"_id" : "$c_orders.o_orderkey",
				"lineitems" : {
					"$filter" : {
						"input" : "$c_orders.o_lineitems",
						"as" : "l",
						"cond" : {
							"$and" : [
								{
									"$gte" : [
										"$$l.l_shipdate",
										{
											"$const" : ISODate("1992-04-30T00:00:00Z")
										}
									]
								},
								{
									"$lt" : [
										"$$l.l_shipdate",
										{
											"$const" : ISODate("1993-04-30T00:00:00Z")
										}
									]
								},
								{
									"$gte" : [
										"$$l.l_discount",
										{
											"$const" : 0.07
										}
									]
								},
								{
									"$lte" : [
										"$$l.l_discount",
										{
											"$const" : 0.09
										}
									]
								},
								{
									"$lt" : [
										"$$l.l_quantity",
										{
											"$const" : 24
										}
									]
								}
							]
						}
					}
				}
			}
		},
		{
			"$unwind" : {
				"path" : "$lineitems"
			}
		},
		{
			"$group" : {
				"_id" : {
					"$const" : null
				},
				"revenue" : {
					"$sum" : {
						"$multiply" : [
							"$lineitems.l_extendedprice",
							"$lineitems.l_discount"
						]
					}
				}
			}
		}
	],
	"serverInfo" : {
		"host" : "dblab.cecsresearch.org",
		"port" : 27017,
		"version" : "4.0.19",
		"gitVersion" : "7e28f4296a04d858a2e3dd84a1e79c9ba59a9568"
	},
	"ok" : 1
}


{
	"stages" : [
		{
			"$cursor" : {
				"query" : {
					
				},
				"fields" : {
					"c_orders" : 1,
					"_id" : 0
				},
				"queryPlanner" : {
					"plannerVersion" : 1,
					"namespace" : "tpch_1.scale1",
					"indexFilterSet" : false,
					"parsedQuery" : {
						
					},
					"winningPlan" : {
						"stage" : "COLLSCAN",
						"direction" : "forward"
					},
					"rejectedPlans" : [ ]
				},
				"executionStats" : {
					"executionSuccess" : true,
					"nReturned" : 3750000,
					"executionTimeMillis" : 560949,
					"totalKeysExamined" : 0,
					"totalDocsExamined" : 3750000,
					"executionStages" : {
						"stage" : "COLLSCAN",
						"nReturned" : 3750000,
						"executionTimeMillisEstimate" : 68546,
						"works" : 3750002,
						"advanced" : 3750000,
						"needTime" : 1,
						"needYield" : 0,
						"saveState" : 90033,
						"restoreState" : 90033,
						"isEOF" : 1,
						"invalidates" : 0,
						"direction" : "forward",
						"docsExamined" : 3750000
					},
					"allPlansExecution" : [ ]
				}
			}
		},
		{
			"$unwind" : {
				"path" : "$c_orders"
			}
		},
		{
			"$project" : {
				"_id" : "$c_orders.o_orderkey",
				"lineitems" : {
					"$filter" : {
						"input" : "$c_orders.o_lineitems",
						"as" : "l",
						"cond" : {
							"$and" : [
								{
									"$gte" : [
										"$$l.l_shipdate",
										{
											"$const" : ISODate("1992-04-30T00:00:00Z")
										}
									]
								},
								{
									"$lt" : [
										"$$l.l_shipdate",
										{
											"$const" : ISODate("1993-04-30T00:00:00Z")
										}
									]
								},
								{
									"$gte" : [
										"$$l.l_discount",
										{
											"$const" : 0.07
										}
									]
								},
								{
									"$lte" : [
										"$$l.l_discount",
										{
											"$const" : 0.09
										}
									]
								},
								{
									"$lt" : [
										"$$l.l_quantity",
										{
											"$const" : 24
										}
									]
								}
							]
						}
					}
				}
			}
		},
		{
			"$unwind" : {
				"path" : "$lineitems"
			}
		},
		{
			"$group" : {
				"_id" : {
					"$const" : null
				},
				"revenue" : {
					"$sum" : {
						"$multiply" : [
							"$lineitems.l_extendedprice",
							"$lineitems.l_discount"
						]
					}
				}
			}
		}
	],
	"serverInfo" : {
		"host" : "dblab.cecsresearch.org",
		"port" : 27017,
		"version" : "4.0.19",
		"gitVersion" : "7e28f4296a04d858a2e3dd84a1e79c9ba59a9568"
	},
	"ok" : 1
}


{
	"stages" : [
		{
			"$cursor" : {
				"query" : {
					
				},
				"fields" : {
					"c_orders" : 1,
					"_id" : 0
				},
				"queryPlanner" : {
					"plannerVersion" : 1,
					"namespace" : "tpch_1.scale1",
					"indexFilterSet" : false,
					"parsedQuery" : {
						
					},
					"winningPlan" : {
						"stage" : "COLLSCAN",
						"direction" : "forward"
					},
					"rejectedPlans" : [ ]
				},
				"executionStats" : {
					"executionSuccess" : true,
					"nReturned" : 3750000,
					"executionTimeMillis" : 563628,
					"totalKeysExamined" : 0,
					"totalDocsExamined" : 3750000,
					"executionStages" : {
						"stage" : "COLLSCAN",
						"nReturned" : 3750000,
						"executionTimeMillisEstimate" : 68414,
						"works" : 3750002,
						"advanced" : 3750000,
						"needTime" : 1,
						"needYield" : 0,
						"saveState" : 90300,
						"restoreState" : 90300,
						"isEOF" : 1,
						"invalidates" : 0,
						"direction" : "forward",
						"docsExamined" : 3750000
					},
					"allPlansExecution" : [ ]
				}
			}
		},
		{
			"$unwind" : {
				"path" : "$c_orders"
			}
		},
		{
			"$project" : {
				"_id" : "$c_orders.o_orderkey",
				"lineitems" : {
					"$filter" : {
						"input" : "$c_orders.o_lineitems",
						"as" : "l",
						"cond" : {
							"$and" : [
								{
									"$gte" : [
										"$$l.l_shipdate",
										{
											"$const" : ISODate("1992-04-30T00:00:00Z")
										}
									]
								},
								{
									"$lt" : [
										"$$l.l_shipdate",
										{
											"$const" : ISODate("1993-04-30T00:00:00Z")
										}
									]
								},
								{
									"$gte" : [
										"$$l.l_discount",
										{
											"$const" : 0.07
										}
									]
								},
								{
									"$lte" : [
										"$$l.l_discount",
										{
											"$const" : 0.09
										}
									]
								},
								{
									"$lt" : [
										"$$l.l_quantity",
										{
											"$const" : 24
										}
									]
								}
							]
						}
					}
				}
			}
		},
		{
			"$unwind" : {
				"path" : "$lineitems"
			}
		},
		{
			"$group" : {
				"_id" : {
					"$const" : null
				},
				"revenue" : {
					"$sum" : {
						"$multiply" : [
							"$lineitems.l_extendedprice",
							"$lineitems.l_discount"
						]
					}
				}
			}
		}
	],
	"serverInfo" : {
		"host" : "dblab.cecsresearch.org",
		"port" : 27017,
		"version" : "4.0.19",
		"gitVersion" : "7e28f4296a04d858a2e3dd84a1e79c9ba59a9568"
	},
	"ok" : 1
}


{
	"stages" : [
		{
			"$cursor" : {
				"query" : {
					
				},
				"fields" : {
					"c_orders" : 1,
					"_id" : 0
				},
				"queryPlanner" : {
					"plannerVersion" : 1,
					"namespace" : "tpch_1.scale1",
					"indexFilterSet" : false,
					"parsedQuery" : {
						
					},
					"winningPlan" : {
						"stage" : "COLLSCAN",
						"direction" : "forward"
					},
					"rejectedPlans" : [ ]
				},
				"executionStats" : {
					"executionSuccess" : true,
					"nReturned" : 3750000,
					"executionTimeMillis" : 562433,
					"totalKeysExamined" : 0,
					"totalDocsExamined" : 3750000,
					"executionStages" : {
						"stage" : "COLLSCAN",
						"nReturned" : 3750000,
						"executionTimeMillisEstimate" : 68175,
						"works" : 3750002,
						"advanced" : 3750000,
						"needTime" : 1,
						"needYield" : 0,
						"saveState" : 90129,
						"restoreState" : 90129,
						"isEOF" : 1,
						"invalidates" : 0,
						"direction" : "forward",
						"docsExamined" : 3750000
					},
					"allPlansExecution" : [ ]
				}
			}
		},
		{
			"$unwind" : {
				"path" : "$c_orders"
			}
		},
		{
			"$project" : {
				"_id" : "$c_orders.o_orderkey",
				"lineitems" : {
					"$filter" : {
						"input" : "$c_orders.o_lineitems",
						"as" : "l",
						"cond" : {
							"$and" : [
								{
									"$gte" : [
										"$$l.l_shipdate",
										{
											"$const" : ISODate("1992-04-30T00:00:00Z")
										}
									]
								},
								{
									"$lt" : [
										"$$l.l_shipdate",
										{
											"$const" : ISODate("1993-04-30T00:00:00Z")
										}
									]
								},
								{
									"$gte" : [
										"$$l.l_discount",
										{
											"$const" : 0.07
										}
									]
								},
								{
									"$lte" : [
										"$$l.l_discount",
										{
											"$const" : 0.09
										}
									]
								},
								{
									"$lt" : [
										"$$l.l_quantity",
										{
											"$const" : 24
										}
									]
								}
							]
						}
					}
				}
			}
		},
		{
			"$unwind" : {
				"path" : "$lineitems"
			}
		},
		{
			"$group" : {
				"_id" : {
					"$const" : null
				},
				"revenue" : {
					"$sum" : {
						"$multiply" : [
							"$lineitems.l_extendedprice",
							"$lineitems.l_discount"
						]
					}
				}
			}
		}
	],
	"serverInfo" : {
		"host" : "dblab.cecsresearch.org",
		"port" : 27017,
		"version" : "4.0.19",
		"gitVersion" : "7e28f4296a04d858a2e3dd84a1e79c9ba59a9568"
	},
	"ok" : 1
}


{
	"stages" : [
		{
			"$cursor" : {
				"query" : {
					
				},
				"fields" : {
					"c_orders" : 1,
					"_id" : 0
				},
				"queryPlanner" : {
					"plannerVersion" : 1,
					"namespace" : "tpch_1.scale1",
					"indexFilterSet" : false,
					"parsedQuery" : {
						
					},
					"winningPlan" : {
						"stage" : "COLLSCAN",
						"direction" : "forward"
					},
					"rejectedPlans" : [ ]
				},
				"executionStats" : {
					"executionSuccess" : true,
					"nReturned" : 3750000,
					"executionTimeMillis" : 559908,
					"totalKeysExamined" : 0,
					"totalDocsExamined" : 3750000,
					"executionStages" : {
						"stage" : "COLLSCAN",
						"nReturned" : 3750000,
						"executionTimeMillisEstimate" : 67997,
						"works" : 3750002,
						"advanced" : 3750000,
						"needTime" : 1,
						"needYield" : 0,
						"saveState" : 89316,
						"restoreState" : 89316,
						"isEOF" : 1,
						"invalidates" : 0,
						"direction" : "forward",
						"docsExamined" : 3750000
					},
					"allPlansExecution" : [ ]
				}
			}
		},
		{
			"$unwind" : {
				"path" : "$c_orders"
			}
		},
		{
			"$project" : {
				"_id" : "$c_orders.o_orderkey",
				"lineitems" : {
					"$filter" : {
						"input" : "$c_orders.o_lineitems",
						"as" : "l",
						"cond" : {
							"$and" : [
								{
									"$gte" : [
										"$$l.l_shipdate",
										{
											"$const" : ISODate("1992-04-30T00:00:00Z")
										}
									]
								},
								{
									"$lt" : [
										"$$l.l_shipdate",
										{
											"$const" : ISODate("1993-04-30T00:00:00Z")
										}
									]
								},
								{
									"$gte" : [
										"$$l.l_discount",
										{
											"$const" : 0.07
										}
									]
								},
								{
									"$lte" : [
										"$$l.l_discount",
										{
											"$const" : 0.09
										}
									]
								},
								{
									"$lt" : [
										"$$l.l_quantity",
										{
											"$const" : 24
										}
									]
								}
							]
						}
					}
				}
			}
		},
		{
			"$unwind" : {
				"path" : "$lineitems"
			}
		},
		{
			"$group" : {
				"_id" : {
					"$const" : null
				},
				"revenue" : {
					"$sum" : {
						"$multiply" : [
							"$lineitems.l_extendedprice",
							"$lineitems.l_discount"
						]
					}
				}
			}
		}
	],
	"serverInfo" : {
		"host" : "dblab.cecsresearch.org",
		"port" : 27017,
		"version" : "4.0.19",
		"gitVersion" : "7e28f4296a04d858a2e3dd84a1e79c9ba59a9568"
	},
	"ok" : 1
}


