{
	"stages" : [
		{
			"$cursor" : {
				"query" : {
					"$and" : [
						{
							"p_size" : {
								"$eq" : 38
							}
						},
						{
							"p_type" : {
								"$regex" : ".*TIN"
							}
						}
					]
				},
				"fields" : {
					"min_supplycost" : 1,
					"p_mfgr" : 1,
					"p_suppliers" : 1,
					"supplier_ids" : 1,
					"supplier_info" : 1,
					"_id" : 1
				},
				"queryPlanner" : {
					"plannerVersion" : 1,
					"namespace" : "tpch_1.part",
					"indexFilterSet" : false,
					"parsedQuery" : {
						"$and" : [
							{
								"p_size" : {
									"$eq" : 38
								}
							},
							{
								"p_type" : {
									"$regex" : ".*TIN"
								}
							}
						]
					},
					"winningPlan" : {
						"stage" : "COLLSCAN",
						"filter" : {
							"$and" : [
								{
									"p_size" : {
										"$eq" : 38
									}
								},
								{
									"p_type" : {
										"$regex" : ".*TIN"
									}
								}
							]
						},
						"direction" : "forward"
					},
					"rejectedPlans" : [ ]
				},
				"executionStats" : {
					"executionSuccess" : true,
					"nReturned" : 40041,
					"executionTimeMillis" : 46379,
					"totalKeysExamined" : 0,
					"totalDocsExamined" : 10000000,
					"executionStages" : {
						"stage" : "COLLSCAN",
						"filter" : {
							"$and" : [
								{
									"p_size" : {
										"$eq" : 38
									}
								},
								{
									"p_type" : {
										"$regex" : ".*TIN"
									}
								}
							]
						},
						"nReturned" : 40041,
						"executionTimeMillisEstimate" : 3417,
						"works" : 10000002,
						"advanced" : 40041,
						"needTime" : 9959960,
						"needYield" : 0,
						"saveState" : 78178,
						"restoreState" : 78178,
						"isEOF" : 1,
						"invalidates" : 0,
						"direction" : "forward",
						"docsExamined" : 10000000
					},
					"allPlansExecution" : [ ]
				}
			}
		},
		{
			"$addFields" : {
				"supplier_ids" : {
					"$map" : {
						"input" : "$p_suppliers",
						"as" : "ps",
						"in" : "$$ps.ps_suppkey"
					}
				}
			}
		},
		{
			"$lookup" : {
				"from" : "supplier",
				"as" : "supplier_info",
				"localField" : "supplier_ids",
				"foreignField" : "_id"
			}
		},
		{
			"$addFields" : {
				"supplier_info" : {
					"$filter" : {
						"input" : "$supplier_info",
						"as" : "s",
						"cond" : {
							"$eq" : [
								"$$s.s_nation.n_region.r_name",
								{
									"$const" : "MIDDLE EAST"
								}
							]
						}
					}
				}
			}
		},
		{
			"$addFields" : {
				"p_suppliers" : {
					"$filter" : {
						"input" : "$p_suppliers",
						"as" : "ps",
						"cond" : {
							"$in" : [
								"$$ps.ps_suppkey",
								{
									"$map" : {
										"input" : "$supplier_info",
										"as" : "s",
										"in" : "$$s._id"
									}
								}
							]
						}
					}
				}
			}
		},
		{
			"$unwind" : {
				"path" : "$supplier_info"
			}
		},
		{
			"$addFields" : {
				"min_supplycost" : {
					"$min" : [
						{
							"$map" : {
								"input" : "$p_suppliers",
								"as" : "ps",
								"in" : "$$ps.ps_supplycost"
							}
						}
					]
				}
			}
		},
		{
			"$unwind" : {
				"path" : "$p_suppliers"
			}
		},
		{
			"$match" : {
				"$and" : [
					{
						"$expr" : {
							"$eq" : [
								"$p_suppliers.ps_suppkey",
								"$supplier_info._id"
							]
						}
					},
					{
						"$expr" : {
							"$eq" : [
								"$p_suppliers.ps_supplycost",
								"$min_supplycost"
							]
						}
					}
				]
			}
		},
		{
			"$project" : {
				"_id" : true,
				"p_mfgr" : true,
				"s_acctbal" : "$supplier_info.s_acctbal",
				"s_name" : "$supplier_info.s_name",
				"n_name" : "$supplier_info.s_nation.n_name",
				"s_address" : "$supplier_info.s_address",
				"s_phone" : "$supplier_info.s_phone",
				"s_comment" : "$supplier_info.s_comment",
				"ps_supplycost" : "$p_suppliers.ps_supplycost"
			}
		},
		{
			"$sort" : {
				"sortKey" : {
					"s_acctbal" : -1,
					"n_name" : 1,
					"s_name" : 1,
					"_id" : 1
				},
				"limit" : NumberLong(100)
			}
		}
	],
	"serverInfo" : {
		"host" : "dblab.cecsresearch.org",
		"port" : 27017,
		"version" : "4.0.19",
		"gitVersion" : "7e28f4296a04d858a2e3dd84a1e79c9ba59a9568"
	},
	"ok" : 1
}


{
	"stages" : [
		{
			"$cursor" : {
				"query" : {
					"$and" : [
						{
							"p_size" : {
								"$eq" : 38
							}
						},
						{
							"p_type" : {
								"$regex" : ".*TIN"
							}
						}
					]
				},
				"fields" : {
					"min_supplycost" : 1,
					"p_mfgr" : 1,
					"p_suppliers" : 1,
					"supplier_ids" : 1,
					"supplier_info" : 1,
					"_id" : 1
				},
				"queryPlanner" : {
					"plannerVersion" : 1,
					"namespace" : "tpch_1.part",
					"indexFilterSet" : false,
					"parsedQuery" : {
						"$and" : [
							{
								"p_size" : {
									"$eq" : 38
								}
							},
							{
								"p_type" : {
									"$regex" : ".*TIN"
								}
							}
						]
					},
					"winningPlan" : {
						"stage" : "COLLSCAN",
						"filter" : {
							"$and" : [
								{
									"p_size" : {
										"$eq" : 38
									}
								},
								{
									"p_type" : {
										"$regex" : ".*TIN"
									}
								}
							]
						},
						"direction" : "forward"
					},
					"rejectedPlans" : [ ]
				},
				"executionStats" : {
					"executionSuccess" : true,
					"nReturned" : 40041,
					"executionTimeMillis" : 47097,
					"totalKeysExamined" : 0,
					"totalDocsExamined" : 10000000,
					"executionStages" : {
						"stage" : "COLLSCAN",
						"filter" : {
							"$and" : [
								{
									"p_size" : {
										"$eq" : 38
									}
								},
								{
									"p_type" : {
										"$regex" : ".*TIN"
									}
								}
							]
						},
						"nReturned" : 40041,
						"executionTimeMillisEstimate" : 3636,
						"works" : 10000002,
						"advanced" : 40041,
						"needTime" : 9959960,
						"needYield" : 0,
						"saveState" : 78179,
						"restoreState" : 78179,
						"isEOF" : 1,
						"invalidates" : 0,
						"direction" : "forward",
						"docsExamined" : 10000000
					},
					"allPlansExecution" : [ ]
				}
			}
		},
		{
			"$addFields" : {
				"supplier_ids" : {
					"$map" : {
						"input" : "$p_suppliers",
						"as" : "ps",
						"in" : "$$ps.ps_suppkey"
					}
				}
			}
		},
		{
			"$lookup" : {
				"from" : "supplier",
				"as" : "supplier_info",
				"localField" : "supplier_ids",
				"foreignField" : "_id"
			}
		},
		{
			"$addFields" : {
				"supplier_info" : {
					"$filter" : {
						"input" : "$supplier_info",
						"as" : "s",
						"cond" : {
							"$eq" : [
								"$$s.s_nation.n_region.r_name",
								{
									"$const" : "MIDDLE EAST"
								}
							]
						}
					}
				}
			}
		},
		{
			"$addFields" : {
				"p_suppliers" : {
					"$filter" : {
						"input" : "$p_suppliers",
						"as" : "ps",
						"cond" : {
							"$in" : [
								"$$ps.ps_suppkey",
								{
									"$map" : {
										"input" : "$supplier_info",
										"as" : "s",
										"in" : "$$s._id"
									}
								}
							]
						}
					}
				}
			}
		},
		{
			"$unwind" : {
				"path" : "$supplier_info"
			}
		},
		{
			"$addFields" : {
				"min_supplycost" : {
					"$min" : [
						{
							"$map" : {
								"input" : "$p_suppliers",
								"as" : "ps",
								"in" : "$$ps.ps_supplycost"
							}
						}
					]
				}
			}
		},
		{
			"$unwind" : {
				"path" : "$p_suppliers"
			}
		},
		{
			"$match" : {
				"$and" : [
					{
						"$expr" : {
							"$eq" : [
								"$p_suppliers.ps_suppkey",
								"$supplier_info._id"
							]
						}
					},
					{
						"$expr" : {
							"$eq" : [
								"$p_suppliers.ps_supplycost",
								"$min_supplycost"
							]
						}
					}
				]
			}
		},
		{
			"$project" : {
				"_id" : true,
				"p_mfgr" : true,
				"s_acctbal" : "$supplier_info.s_acctbal",
				"s_name" : "$supplier_info.s_name",
				"n_name" : "$supplier_info.s_nation.n_name",
				"s_address" : "$supplier_info.s_address",
				"s_phone" : "$supplier_info.s_phone",
				"s_comment" : "$supplier_info.s_comment",
				"ps_supplycost" : "$p_suppliers.ps_supplycost"
			}
		},
		{
			"$sort" : {
				"sortKey" : {
					"s_acctbal" : -1,
					"n_name" : 1,
					"s_name" : 1,
					"_id" : 1
				},
				"limit" : NumberLong(100)
			}
		}
	],
	"serverInfo" : {
		"host" : "dblab.cecsresearch.org",
		"port" : 27017,
		"version" : "4.0.19",
		"gitVersion" : "7e28f4296a04d858a2e3dd84a1e79c9ba59a9568"
	},
	"ok" : 1
}


{
	"stages" : [
		{
			"$cursor" : {
				"query" : {
					"$and" : [
						{
							"p_size" : {
								"$eq" : 38
							}
						},
						{
							"p_type" : {
								"$regex" : ".*TIN"
							}
						}
					]
				},
				"fields" : {
					"min_supplycost" : 1,
					"p_mfgr" : 1,
					"p_suppliers" : 1,
					"supplier_ids" : 1,
					"supplier_info" : 1,
					"_id" : 1
				},
				"queryPlanner" : {
					"plannerVersion" : 1,
					"namespace" : "tpch_1.part",
					"indexFilterSet" : false,
					"parsedQuery" : {
						"$and" : [
							{
								"p_size" : {
									"$eq" : 38
								}
							},
							{
								"p_type" : {
									"$regex" : ".*TIN"
								}
							}
						]
					},
					"winningPlan" : {
						"stage" : "COLLSCAN",
						"filter" : {
							"$and" : [
								{
									"p_size" : {
										"$eq" : 38
									}
								},
								{
									"p_type" : {
										"$regex" : ".*TIN"
									}
								}
							]
						},
						"direction" : "forward"
					},
					"rejectedPlans" : [ ]
				},
				"executionStats" : {
					"executionSuccess" : true,
					"nReturned" : 40041,
					"executionTimeMillis" : 46997,
					"totalKeysExamined" : 0,
					"totalDocsExamined" : 10000000,
					"executionStages" : {
						"stage" : "COLLSCAN",
						"filter" : {
							"$and" : [
								{
									"p_size" : {
										"$eq" : 38
									}
								},
								{
									"p_type" : {
										"$regex" : ".*TIN"
									}
								}
							]
						},
						"nReturned" : 40041,
						"executionTimeMillisEstimate" : 4029,
						"works" : 10000002,
						"advanced" : 40041,
						"needTime" : 9959960,
						"needYield" : 0,
						"saveState" : 78179,
						"restoreState" : 78179,
						"isEOF" : 1,
						"invalidates" : 0,
						"direction" : "forward",
						"docsExamined" : 10000000
					},
					"allPlansExecution" : [ ]
				}
			}
		},
		{
			"$addFields" : {
				"supplier_ids" : {
					"$map" : {
						"input" : "$p_suppliers",
						"as" : "ps",
						"in" : "$$ps.ps_suppkey"
					}
				}
			}
		},
		{
			"$lookup" : {
				"from" : "supplier",
				"as" : "supplier_info",
				"localField" : "supplier_ids",
				"foreignField" : "_id"
			}
		},
		{
			"$addFields" : {
				"supplier_info" : {
					"$filter" : {
						"input" : "$supplier_info",
						"as" : "s",
						"cond" : {
							"$eq" : [
								"$$s.s_nation.n_region.r_name",
								{
									"$const" : "MIDDLE EAST"
								}
							]
						}
					}
				}
			}
		},
		{
			"$addFields" : {
				"p_suppliers" : {
					"$filter" : {
						"input" : "$p_suppliers",
						"as" : "ps",
						"cond" : {
							"$in" : [
								"$$ps.ps_suppkey",
								{
									"$map" : {
										"input" : "$supplier_info",
										"as" : "s",
										"in" : "$$s._id"
									}
								}
							]
						}
					}
				}
			}
		},
		{
			"$unwind" : {
				"path" : "$supplier_info"
			}
		},
		{
			"$addFields" : {
				"min_supplycost" : {
					"$min" : [
						{
							"$map" : {
								"input" : "$p_suppliers",
								"as" : "ps",
								"in" : "$$ps.ps_supplycost"
							}
						}
					]
				}
			}
		},
		{
			"$unwind" : {
				"path" : "$p_suppliers"
			}
		},
		{
			"$match" : {
				"$and" : [
					{
						"$expr" : {
							"$eq" : [
								"$p_suppliers.ps_suppkey",
								"$supplier_info._id"
							]
						}
					},
					{
						"$expr" : {
							"$eq" : [
								"$p_suppliers.ps_supplycost",
								"$min_supplycost"
							]
						}
					}
				]
			}
		},
		{
			"$project" : {
				"_id" : true,
				"p_mfgr" : true,
				"s_acctbal" : "$supplier_info.s_acctbal",
				"s_name" : "$supplier_info.s_name",
				"n_name" : "$supplier_info.s_nation.n_name",
				"s_address" : "$supplier_info.s_address",
				"s_phone" : "$supplier_info.s_phone",
				"s_comment" : "$supplier_info.s_comment",
				"ps_supplycost" : "$p_suppliers.ps_supplycost"
			}
		},
		{
			"$sort" : {
				"sortKey" : {
					"s_acctbal" : -1,
					"n_name" : 1,
					"s_name" : 1,
					"_id" : 1
				},
				"limit" : NumberLong(100)
			}
		}
	],
	"serverInfo" : {
		"host" : "dblab.cecsresearch.org",
		"port" : 27017,
		"version" : "4.0.19",
		"gitVersion" : "7e28f4296a04d858a2e3dd84a1e79c9ba59a9568"
	},
	"ok" : 1
}


{
	"stages" : [
		{
			"$cursor" : {
				"query" : {
					"$and" : [
						{
							"p_size" : {
								"$eq" : 38
							}
						},
						{
							"p_type" : {
								"$regex" : ".*TIN"
							}
						}
					]
				},
				"fields" : {
					"min_supplycost" : 1,
					"p_mfgr" : 1,
					"p_suppliers" : 1,
					"supplier_ids" : 1,
					"supplier_info" : 1,
					"_id" : 1
				},
				"queryPlanner" : {
					"plannerVersion" : 1,
					"namespace" : "tpch_1.part",
					"indexFilterSet" : false,
					"parsedQuery" : {
						"$and" : [
							{
								"p_size" : {
									"$eq" : 38
								}
							},
							{
								"p_type" : {
									"$regex" : ".*TIN"
								}
							}
						]
					},
					"winningPlan" : {
						"stage" : "COLLSCAN",
						"filter" : {
							"$and" : [
								{
									"p_size" : {
										"$eq" : 38
									}
								},
								{
									"p_type" : {
										"$regex" : ".*TIN"
									}
								}
							]
						},
						"direction" : "forward"
					},
					"rejectedPlans" : [ ]
				},
				"executionStats" : {
					"executionSuccess" : true,
					"nReturned" : 40041,
					"executionTimeMillis" : 46216,
					"totalKeysExamined" : 0,
					"totalDocsExamined" : 10000000,
					"executionStages" : {
						"stage" : "COLLSCAN",
						"filter" : {
							"$and" : [
								{
									"p_size" : {
										"$eq" : 38
									}
								},
								{
									"p_type" : {
										"$regex" : ".*TIN"
									}
								}
							]
						},
						"nReturned" : 40041,
						"executionTimeMillisEstimate" : 3463,
						"works" : 10000002,
						"advanced" : 40041,
						"needTime" : 9959960,
						"needYield" : 0,
						"saveState" : 78177,
						"restoreState" : 78177,
						"isEOF" : 1,
						"invalidates" : 0,
						"direction" : "forward",
						"docsExamined" : 10000000
					},
					"allPlansExecution" : [ ]
				}
			}
		},
		{
			"$addFields" : {
				"supplier_ids" : {
					"$map" : {
						"input" : "$p_suppliers",
						"as" : "ps",
						"in" : "$$ps.ps_suppkey"
					}
				}
			}
		},
		{
			"$lookup" : {
				"from" : "supplier",
				"as" : "supplier_info",
				"localField" : "supplier_ids",
				"foreignField" : "_id"
			}
		},
		{
			"$addFields" : {
				"supplier_info" : {
					"$filter" : {
						"input" : "$supplier_info",
						"as" : "s",
						"cond" : {
							"$eq" : [
								"$$s.s_nation.n_region.r_name",
								{
									"$const" : "MIDDLE EAST"
								}
							]
						}
					}
				}
			}
		},
		{
			"$addFields" : {
				"p_suppliers" : {
					"$filter" : {
						"input" : "$p_suppliers",
						"as" : "ps",
						"cond" : {
							"$in" : [
								"$$ps.ps_suppkey",
								{
									"$map" : {
										"input" : "$supplier_info",
										"as" : "s",
										"in" : "$$s._id"
									}
								}
							]
						}
					}
				}
			}
		},
		{
			"$unwind" : {
				"path" : "$supplier_info"
			}
		},
		{
			"$addFields" : {
				"min_supplycost" : {
					"$min" : [
						{
							"$map" : {
								"input" : "$p_suppliers",
								"as" : "ps",
								"in" : "$$ps.ps_supplycost"
							}
						}
					]
				}
			}
		},
		{
			"$unwind" : {
				"path" : "$p_suppliers"
			}
		},
		{
			"$match" : {
				"$and" : [
					{
						"$expr" : {
							"$eq" : [
								"$p_suppliers.ps_suppkey",
								"$supplier_info._id"
							]
						}
					},
					{
						"$expr" : {
							"$eq" : [
								"$p_suppliers.ps_supplycost",
								"$min_supplycost"
							]
						}
					}
				]
			}
		},
		{
			"$project" : {
				"_id" : true,
				"p_mfgr" : true,
				"s_acctbal" : "$supplier_info.s_acctbal",
				"s_name" : "$supplier_info.s_name",
				"n_name" : "$supplier_info.s_nation.n_name",
				"s_address" : "$supplier_info.s_address",
				"s_phone" : "$supplier_info.s_phone",
				"s_comment" : "$supplier_info.s_comment",
				"ps_supplycost" : "$p_suppliers.ps_supplycost"
			}
		},
		{
			"$sort" : {
				"sortKey" : {
					"s_acctbal" : -1,
					"n_name" : 1,
					"s_name" : 1,
					"_id" : 1
				},
				"limit" : NumberLong(100)
			}
		}
	],
	"serverInfo" : {
		"host" : "dblab.cecsresearch.org",
		"port" : 27017,
		"version" : "4.0.19",
		"gitVersion" : "7e28f4296a04d858a2e3dd84a1e79c9ba59a9568"
	},
	"ok" : 1
}


{
	"stages" : [
		{
			"$cursor" : {
				"query" : {
					"$and" : [
						{
							"p_size" : {
								"$eq" : 38
							}
						},
						{
							"p_type" : {
								"$regex" : ".*TIN"
							}
						}
					]
				},
				"fields" : {
					"min_supplycost" : 1,
					"p_mfgr" : 1,
					"p_suppliers" : 1,
					"supplier_ids" : 1,
					"supplier_info" : 1,
					"_id" : 1
				},
				"queryPlanner" : {
					"plannerVersion" : 1,
					"namespace" : "tpch_1.part",
					"indexFilterSet" : false,
					"parsedQuery" : {
						"$and" : [
							{
								"p_size" : {
									"$eq" : 38
								}
							},
							{
								"p_type" : {
									"$regex" : ".*TIN"
								}
							}
						]
					},
					"winningPlan" : {
						"stage" : "COLLSCAN",
						"filter" : {
							"$and" : [
								{
									"p_size" : {
										"$eq" : 38
									}
								},
								{
									"p_type" : {
										"$regex" : ".*TIN"
									}
								}
							]
						},
						"direction" : "forward"
					},
					"rejectedPlans" : [ ]
				},
				"executionStats" : {
					"executionSuccess" : true,
					"nReturned" : 40041,
					"executionTimeMillis" : 46686,
					"totalKeysExamined" : 0,
					"totalDocsExamined" : 10000000,
					"executionStages" : {
						"stage" : "COLLSCAN",
						"filter" : {
							"$and" : [
								{
									"p_size" : {
										"$eq" : 38
									}
								},
								{
									"p_type" : {
										"$regex" : ".*TIN"
									}
								}
							]
						},
						"nReturned" : 40041,
						"executionTimeMillisEstimate" : 3718,
						"works" : 10000002,
						"advanced" : 40041,
						"needTime" : 9959960,
						"needYield" : 0,
						"saveState" : 78181,
						"restoreState" : 78181,
						"isEOF" : 1,
						"invalidates" : 0,
						"direction" : "forward",
						"docsExamined" : 10000000
					},
					"allPlansExecution" : [ ]
				}
			}
		},
		{
			"$addFields" : {
				"supplier_ids" : {
					"$map" : {
						"input" : "$p_suppliers",
						"as" : "ps",
						"in" : "$$ps.ps_suppkey"
					}
				}
			}
		},
		{
			"$lookup" : {
				"from" : "supplier",
				"as" : "supplier_info",
				"localField" : "supplier_ids",
				"foreignField" : "_id"
			}
		},
		{
			"$addFields" : {
				"supplier_info" : {
					"$filter" : {
						"input" : "$supplier_info",
						"as" : "s",
						"cond" : {
							"$eq" : [
								"$$s.s_nation.n_region.r_name",
								{
									"$const" : "MIDDLE EAST"
								}
							]
						}
					}
				}
			}
		},
		{
			"$addFields" : {
				"p_suppliers" : {
					"$filter" : {
						"input" : "$p_suppliers",
						"as" : "ps",
						"cond" : {
							"$in" : [
								"$$ps.ps_suppkey",
								{
									"$map" : {
										"input" : "$supplier_info",
										"as" : "s",
										"in" : "$$s._id"
									}
								}
							]
						}
					}
				}
			}
		},
		{
			"$unwind" : {
				"path" : "$supplier_info"
			}
		},
		{
			"$addFields" : {
				"min_supplycost" : {
					"$min" : [
						{
							"$map" : {
								"input" : "$p_suppliers",
								"as" : "ps",
								"in" : "$$ps.ps_supplycost"
							}
						}
					]
				}
			}
		},
		{
			"$unwind" : {
				"path" : "$p_suppliers"
			}
		},
		{
			"$match" : {
				"$and" : [
					{
						"$expr" : {
							"$eq" : [
								"$p_suppliers.ps_suppkey",
								"$supplier_info._id"
							]
						}
					},
					{
						"$expr" : {
							"$eq" : [
								"$p_suppliers.ps_supplycost",
								"$min_supplycost"
							]
						}
					}
				]
			}
		},
		{
			"$project" : {
				"_id" : true,
				"p_mfgr" : true,
				"s_acctbal" : "$supplier_info.s_acctbal",
				"s_name" : "$supplier_info.s_name",
				"n_name" : "$supplier_info.s_nation.n_name",
				"s_address" : "$supplier_info.s_address",
				"s_phone" : "$supplier_info.s_phone",
				"s_comment" : "$supplier_info.s_comment",
				"ps_supplycost" : "$p_suppliers.ps_supplycost"
			}
		},
		{
			"$sort" : {
				"sortKey" : {
					"s_acctbal" : -1,
					"n_name" : 1,
					"s_name" : 1,
					"_id" : 1
				},
				"limit" : NumberLong(100)
			}
		}
	],
	"serverInfo" : {
		"host" : "dblab.cecsresearch.org",
		"port" : 27017,
		"version" : "4.0.19",
		"gitVersion" : "7e28f4296a04d858a2e3dd84a1e79c9ba59a9568"
	},
	"ok" : 1
}


