{
	"stages" : [
		{
			"$cursor" : {
				"query" : {
					
				},
				"fields" : {
					"c_name" : 1,
					"c_orders" : 1,
					"sum_qty" : 1,
					"_id" : 1
				},
				"queryPlanner" : {
					"plannerVersion" : 1,
					"namespace" : "tpch_1.scale1",
					"indexFilterSet" : false,
					"parsedQuery" : {
						
					},
					"winningPlan" : {
						"stage" : "COLLSCAN",
						"direction" : "forward"
					},
					"rejectedPlans" : [ ]
				},
				"executionStats" : {
					"executionSuccess" : true,
					"nReturned" : 1500000,
					"executionTimeMillis" : 218235,
					"totalKeysExamined" : 0,
					"totalDocsExamined" : 1500000,
					"executionStages" : {
						"stage" : "COLLSCAN",
						"nReturned" : 1500000,
						"executionTimeMillisEstimate" : 23998,
						"works" : 1500002,
						"advanced" : 1500000,
						"needTime" : 1,
						"needYield" : 0,
						"saveState" : 35708,
						"restoreState" : 35708,
						"isEOF" : 1,
						"invalidates" : 0,
						"direction" : "forward",
						"docsExamined" : 1500000
					},
					"allPlansExecution" : [ ]
				}
			}
		},
		{
			"$unwind" : {
				"path" : "$c_orders"
			}
		},
		{
			"$addFields" : {
				"sum_qty" : {
					"$sum" : [
						{
							"$map" : {
								"input" : "$c_orders.o_lineitems",
								"as" : "l",
								"in" : "$$l.l_quantity"
							}
						}
					]
				}
			}
		},
		{
			"$match" : {
				"sum_qty" : {
					"$gt" : 313
				}
			}
		},
		{
			"$project" : {
				"_id" : true,
				"sum_qty" : true,
				"c_name" : true,
				"o_orderkey" : "$c_orders.o_orderkey",
				"o_orderdate" : "$c_orders.o_orderdate",
				"o_totalprice" : "$c_orders.o_totalprice"
			}
		},
		{
			"$sort" : {
				"sortKey" : {
					"o_totalprice" : -1,
					"o_orderdate" : 1
				},
				"limit" : NumberLong(100)
			}
		}
	],
	"serverInfo" : {
		"host" : "dblab.cecsresearch.org",
		"port" : 27017,
		"version" : "4.0.19",
		"gitVersion" : "7e28f4296a04d858a2e3dd84a1e79c9ba59a9568"
	},
	"ok" : 1
}


{
	"stages" : [
		{
			"$cursor" : {
				"query" : {
					
				},
				"fields" : {
					"c_name" : 1,
					"c_orders" : 1,
					"sum_qty" : 1,
					"_id" : 1
				},
				"queryPlanner" : {
					"plannerVersion" : 1,
					"namespace" : "tpch_1.scale1",
					"indexFilterSet" : false,
					"parsedQuery" : {
						
					},
					"winningPlan" : {
						"stage" : "COLLSCAN",
						"direction" : "forward"
					},
					"rejectedPlans" : [ ]
				},
				"executionStats" : {
					"executionSuccess" : true,
					"nReturned" : 1500000,
					"executionTimeMillis" : 217755,
					"totalKeysExamined" : 0,
					"totalDocsExamined" : 1500000,
					"executionStages" : {
						"stage" : "COLLSCAN",
						"nReturned" : 1500000,
						"executionTimeMillisEstimate" : 23483,
						"works" : 1500002,
						"advanced" : 1500000,
						"needTime" : 1,
						"needYield" : 0,
						"saveState" : 35498,
						"restoreState" : 35498,
						"isEOF" : 1,
						"invalidates" : 0,
						"direction" : "forward",
						"docsExamined" : 1500000
					},
					"allPlansExecution" : [ ]
				}
			}
		},
		{
			"$unwind" : {
				"path" : "$c_orders"
			}
		},
		{
			"$addFields" : {
				"sum_qty" : {
					"$sum" : [
						{
							"$map" : {
								"input" : "$c_orders.o_lineitems",
								"as" : "l",
								"in" : "$$l.l_quantity"
							}
						}
					]
				}
			}
		},
		{
			"$match" : {
				"sum_qty" : {
					"$gt" : 313
				}
			}
		},
		{
			"$project" : {
				"_id" : true,
				"sum_qty" : true,
				"c_name" : true,
				"o_orderkey" : "$c_orders.o_orderkey",
				"o_orderdate" : "$c_orders.o_orderdate",
				"o_totalprice" : "$c_orders.o_totalprice"
			}
		},
		{
			"$sort" : {
				"sortKey" : {
					"o_totalprice" : -1,
					"o_orderdate" : 1
				},
				"limit" : NumberLong(100)
			}
		}
	],
	"serverInfo" : {
		"host" : "dblab.cecsresearch.org",
		"port" : 27017,
		"version" : "4.0.19",
		"gitVersion" : "7e28f4296a04d858a2e3dd84a1e79c9ba59a9568"
	},
	"ok" : 1
}


{
	"stages" : [
		{
			"$cursor" : {
				"query" : {
					
				},
				"fields" : {
					"c_name" : 1,
					"c_orders" : 1,
					"sum_qty" : 1,
					"_id" : 1
				},
				"queryPlanner" : {
					"plannerVersion" : 1,
					"namespace" : "tpch_1.scale1",
					"indexFilterSet" : false,
					"parsedQuery" : {
						
					},
					"winningPlan" : {
						"stage" : "COLLSCAN",
						"direction" : "forward"
					},
					"rejectedPlans" : [ ]
				},
				"executionStats" : {
					"executionSuccess" : true,
					"nReturned" : 1500000,
					"executionTimeMillis" : 219105,
					"totalKeysExamined" : 0,
					"totalDocsExamined" : 1500000,
					"executionStages" : {
						"stage" : "COLLSCAN",
						"nReturned" : 1500000,
						"executionTimeMillisEstimate" : 23972,
						"works" : 1500002,
						"advanced" : 1500000,
						"needTime" : 1,
						"needYield" : 0,
						"saveState" : 35966,
						"restoreState" : 35966,
						"isEOF" : 1,
						"invalidates" : 0,
						"direction" : "forward",
						"docsExamined" : 1500000
					},
					"allPlansExecution" : [ ]
				}
			}
		},
		{
			"$unwind" : {
				"path" : "$c_orders"
			}
		},
		{
			"$addFields" : {
				"sum_qty" : {
					"$sum" : [
						{
							"$map" : {
								"input" : "$c_orders.o_lineitems",
								"as" : "l",
								"in" : "$$l.l_quantity"
							}
						}
					]
				}
			}
		},
		{
			"$match" : {
				"sum_qty" : {
					"$gt" : 313
				}
			}
		},
		{
			"$project" : {
				"_id" : true,
				"sum_qty" : true,
				"c_name" : true,
				"o_orderkey" : "$c_orders.o_orderkey",
				"o_orderdate" : "$c_orders.o_orderdate",
				"o_totalprice" : "$c_orders.o_totalprice"
			}
		},
		{
			"$sort" : {
				"sortKey" : {
					"o_totalprice" : -1,
					"o_orderdate" : 1
				},
				"limit" : NumberLong(100)
			}
		}
	],
	"serverInfo" : {
		"host" : "dblab.cecsresearch.org",
		"port" : 27017,
		"version" : "4.0.19",
		"gitVersion" : "7e28f4296a04d858a2e3dd84a1e79c9ba59a9568"
	},
	"ok" : 1
}


{
	"stages" : [
		{
			"$cursor" : {
				"query" : {
					
				},
				"fields" : {
					"c_name" : 1,
					"c_orders" : 1,
					"sum_qty" : 1,
					"_id" : 1
				},
				"queryPlanner" : {
					"plannerVersion" : 1,
					"namespace" : "tpch_1.scale1",
					"indexFilterSet" : false,
					"parsedQuery" : {
						
					},
					"winningPlan" : {
						"stage" : "COLLSCAN",
						"direction" : "forward"
					},
					"rejectedPlans" : [ ]
				},
				"executionStats" : {
					"executionSuccess" : true,
					"nReturned" : 1500000,
					"executionTimeMillis" : 220133,
					"totalKeysExamined" : 0,
					"totalDocsExamined" : 1500000,
					"executionStages" : {
						"stage" : "COLLSCAN",
						"nReturned" : 1500000,
						"executionTimeMillisEstimate" : 24452,
						"works" : 1500002,
						"advanced" : 1500000,
						"needTime" : 1,
						"needYield" : 0,
						"saveState" : 36589,
						"restoreState" : 36589,
						"isEOF" : 1,
						"invalidates" : 0,
						"direction" : "forward",
						"docsExamined" : 1500000
					},
					"allPlansExecution" : [ ]
				}
			}
		},
		{
			"$unwind" : {
				"path" : "$c_orders"
			}
		},
		{
			"$addFields" : {
				"sum_qty" : {
					"$sum" : [
						{
							"$map" : {
								"input" : "$c_orders.o_lineitems",
								"as" : "l",
								"in" : "$$l.l_quantity"
							}
						}
					]
				}
			}
		},
		{
			"$match" : {
				"sum_qty" : {
					"$gt" : 313
				}
			}
		},
		{
			"$project" : {
				"_id" : true,
				"sum_qty" : true,
				"c_name" : true,
				"o_orderkey" : "$c_orders.o_orderkey",
				"o_orderdate" : "$c_orders.o_orderdate",
				"o_totalprice" : "$c_orders.o_totalprice"
			}
		},
		{
			"$sort" : {
				"sortKey" : {
					"o_totalprice" : -1,
					"o_orderdate" : 1
				},
				"limit" : NumberLong(100)
			}
		}
	],
	"serverInfo" : {
		"host" : "dblab.cecsresearch.org",
		"port" : 27017,
		"version" : "4.0.19",
		"gitVersion" : "7e28f4296a04d858a2e3dd84a1e79c9ba59a9568"
	},
	"ok" : 1
}


{
	"stages" : [
		{
			"$cursor" : {
				"query" : {
					
				},
				"fields" : {
					"c_name" : 1,
					"c_orders" : 1,
					"sum_qty" : 1,
					"_id" : 1
				},
				"queryPlanner" : {
					"plannerVersion" : 1,
					"namespace" : "tpch_1.scale1",
					"indexFilterSet" : false,
					"parsedQuery" : {
						
					},
					"winningPlan" : {
						"stage" : "COLLSCAN",
						"direction" : "forward"
					},
					"rejectedPlans" : [ ]
				},
				"executionStats" : {
					"executionSuccess" : true,
					"nReturned" : 1500000,
					"executionTimeMillis" : 215938,
					"totalKeysExamined" : 0,
					"totalDocsExamined" : 1500000,
					"executionStages" : {
						"stage" : "COLLSCAN",
						"nReturned" : 1500000,
						"executionTimeMillisEstimate" : 23571,
						"works" : 1500002,
						"advanced" : 1500000,
						"needTime" : 1,
						"needYield" : 0,
						"saveState" : 35312,
						"restoreState" : 35312,
						"isEOF" : 1,
						"invalidates" : 0,
						"direction" : "forward",
						"docsExamined" : 1500000
					},
					"allPlansExecution" : [ ]
				}
			}
		},
		{
			"$unwind" : {
				"path" : "$c_orders"
			}
		},
		{
			"$addFields" : {
				"sum_qty" : {
					"$sum" : [
						{
							"$map" : {
								"input" : "$c_orders.o_lineitems",
								"as" : "l",
								"in" : "$$l.l_quantity"
							}
						}
					]
				}
			}
		},
		{
			"$match" : {
				"sum_qty" : {
					"$gt" : 313
				}
			}
		},
		{
			"$project" : {
				"_id" : true,
				"sum_qty" : true,
				"c_name" : true,
				"o_orderkey" : "$c_orders.o_orderkey",
				"o_orderdate" : "$c_orders.o_orderdate",
				"o_totalprice" : "$c_orders.o_totalprice"
			}
		},
		{
			"$sort" : {
				"sortKey" : {
					"o_totalprice" : -1,
					"o_orderdate" : 1
				},
				"limit" : NumberLong(100)
			}
		}
	],
	"serverInfo" : {
		"host" : "dblab.cecsresearch.org",
		"port" : 27017,
		"version" : "4.0.19",
		"gitVersion" : "7e28f4296a04d858a2e3dd84a1e79c9ba59a9568"
	},
	"ok" : 1
}


