{
	"stages" : [
		{
			"$cursor" : {
				"query" : {
					"p_name" : /.*yellow.*/
				},
				"fields" : {
					"lineitem" : 1,
					"p_suppliers" : 1,
					"_id" : 1
				},
				"queryPlanner" : {
					"plannerVersion" : 1,
					"namespace" : "tpch_1.part",
					"indexFilterSet" : false,
					"parsedQuery" : {
						"p_name" : {
							"$regex" : ".*yellow.*"
						}
					},
					"winningPlan" : {
						"stage" : "COLLSCAN",
						"filter" : {
							"p_name" : {
								"$regex" : ".*yellow.*"
							}
						},
						"direction" : "forward"
					},
					"rejectedPlans" : [ ]
				},
				"executionStats" : {
					"executionSuccess" : true,
					"nReturned" : 108810,
					"executionTimeMillis" : 1679652,
					"totalKeysExamined" : 0,
					"totalDocsExamined" : 2000000,
					"executionStages" : {
						"stage" : "COLLSCAN",
						"filter" : {
							"p_name" : {
								"$regex" : ".*yellow.*"
							}
						},
						"nReturned" : 108810,
						"executionTimeMillisEstimate" : 1983,
						"works" : 2000002,
						"advanced" : 108810,
						"needTime" : 1891191,
						"needYield" : 0,
						"saveState" : 15726,
						"restoreState" : 15726,
						"isEOF" : 1,
						"invalidates" : 0,
						"direction" : "forward",
						"docsExamined" : 2000000
					},
					"allPlansExecution" : [ ]
				}
			}
		},
		{
			"$lookup" : {
				"from" : "lineitem",
				"as" : "lineitem",
				"localField" : "_id",
				"foreignField" : "l_partkey"
			}
		},
		{
			"$unwind" : {
				"path" : "$p_suppliers"
			}
		},
		{
			"$project" : {
				"_id" : true,
				"lineitem" : true,
				"p_partkey" : "$_id",
				"ps_supplycost" : "$p_suppliers.ps_supplycost",
				"ps_suppkey" : "$p_suppliers.ps_suppkey"
			}
		},
		{
			"$lookup" : {
				"from" : "supplier",
				"as" : "supplier",
				"localField" : "ps_suppkey",
				"foreignField" : "_id",
				"unwinding" : {
					"preserveNullAndEmptyArrays" : false
				}
			}
		},
		{
			"$match" : {
				"$expr" : {
					"$in" : [
						"$p_partkey",
						"$supplier.s_parts"
					]
				}
			}
		},
		{
			"$project" : {
				"_id" : true,
				"ps_suppkey" : true,
				"ps_supplycost" : true,
				"p_partkey" : true,
				"n_nation" : "$supplier.s_nation.n_name",
				"lineitem" : {
					"$filter" : {
						"input" : "$lineitem",
						"as" : "l",
						"cond" : {
							"$eq" : [
								"$$l.l_suppkey",
								"$ps_suppkey"
							]
						}
					}
				}
			}
		},
		{
			"$unwind" : {
				"path" : "$lineitem"
			}
		},
		{
			"$lookup" : {
				"from" : "orders",
				"as" : "order",
				"localField" : "lineitem._id.l_orderkey",
				"foreignField" : "_id",
				"unwinding" : {
					"preserveNullAndEmptyArrays" : false
				}
			}
		},
		{
			"$project" : {
				"_id" : true,
				"nation" : "$n_nation",
				"o_year" : {
					"$year" : {
						"date" : "$order.o_orderdate"
					}
				},
				"amount" : {
					"$subtract" : [
						{
							"$multiply" : [
								"$lineitem.l_extendedprice",
								{
									"$subtract" : [
										{
											"$const" : 1
										},
										"$lineitem.l_discount"
									]
								}
							]
						},
						{
							"$multiply" : [
								"$ps_supplycost",
								"$lineitem.l_quantity"
							]
						}
					]
				}
			}
		},
		{
			"$group" : {
				"_id" : {
					"nation" : "$nation",
					"o_year" : "$o_year"
				},
				"sum_profit" : {
					"$sum" : "$amount"
				}
			}
		},
		{
			"$sort" : {
				"sortKey" : {
					"_id.nation" : 1,
					"_id.o_year" : -1
				}
			}
		}
	],
	"serverInfo" : {
		"host" : "dblab.cecsresearch.org",
		"port" : 27017,
		"version" : "4.0.19",
		"gitVersion" : "7e28f4296a04d858a2e3dd84a1e79c9ba59a9568"
	},
	"ok" : 1
}


{
	"stages" : [
		{
			"$cursor" : {
				"query" : {
					"p_name" : /.*yellow.*/
				},
				"fields" : {
					"lineitem" : 1,
					"p_suppliers" : 1,
					"_id" : 1
				},
				"queryPlanner" : {
					"plannerVersion" : 1,
					"namespace" : "tpch_1.part",
					"indexFilterSet" : false,
					"parsedQuery" : {
						"p_name" : {
							"$regex" : ".*yellow.*"
						}
					},
					"winningPlan" : {
						"stage" : "COLLSCAN",
						"filter" : {
							"p_name" : {
								"$regex" : ".*yellow.*"
							}
						},
						"direction" : "forward"
					},
					"rejectedPlans" : [ ]
				},
				"executionStats" : {
					"executionSuccess" : true,
					"nReturned" : 108810,
					"executionTimeMillis" : 1668402,
					"totalKeysExamined" : 0,
					"totalDocsExamined" : 2000000,
					"executionStages" : {
						"stage" : "COLLSCAN",
						"filter" : {
							"p_name" : {
								"$regex" : ".*yellow.*"
							}
						},
						"nReturned" : 108810,
						"executionTimeMillisEstimate" : 1614,
						"works" : 2000002,
						"advanced" : 108810,
						"needTime" : 1891191,
						"needYield" : 0,
						"saveState" : 15723,
						"restoreState" : 15723,
						"isEOF" : 1,
						"invalidates" : 0,
						"direction" : "forward",
						"docsExamined" : 2000000
					},
					"allPlansExecution" : [ ]
				}
			}
		},
		{
			"$lookup" : {
				"from" : "lineitem",
				"as" : "lineitem",
				"localField" : "_id",
				"foreignField" : "l_partkey"
			}
		},
		{
			"$unwind" : {
				"path" : "$p_suppliers"
			}
		},
		{
			"$project" : {
				"_id" : true,
				"lineitem" : true,
				"p_partkey" : "$_id",
				"ps_supplycost" : "$p_suppliers.ps_supplycost",
				"ps_suppkey" : "$p_suppliers.ps_suppkey"
			}
		},
		{
			"$lookup" : {
				"from" : "supplier",
				"as" : "supplier",
				"localField" : "ps_suppkey",
				"foreignField" : "_id",
				"unwinding" : {
					"preserveNullAndEmptyArrays" : false
				}
			}
		},
		{
			"$match" : {
				"$expr" : {
					"$in" : [
						"$p_partkey",
						"$supplier.s_parts"
					]
				}
			}
		},
		{
			"$project" : {
				"_id" : true,
				"ps_suppkey" : true,
				"ps_supplycost" : true,
				"p_partkey" : true,
				"n_nation" : "$supplier.s_nation.n_name",
				"lineitem" : {
					"$filter" : {
						"input" : "$lineitem",
						"as" : "l",
						"cond" : {
							"$eq" : [
								"$$l.l_suppkey",
								"$ps_suppkey"
							]
						}
					}
				}
			}
		},
		{
			"$unwind" : {
				"path" : "$lineitem"
			}
		},
		{
			"$lookup" : {
				"from" : "orders",
				"as" : "order",
				"localField" : "lineitem._id.l_orderkey",
				"foreignField" : "_id",
				"unwinding" : {
					"preserveNullAndEmptyArrays" : false
				}
			}
		},
		{
			"$project" : {
				"_id" : true,
				"nation" : "$n_nation",
				"o_year" : {
					"$year" : {
						"date" : "$order.o_orderdate"
					}
				},
				"amount" : {
					"$subtract" : [
						{
							"$multiply" : [
								"$lineitem.l_extendedprice",
								{
									"$subtract" : [
										{
											"$const" : 1
										},
										"$lineitem.l_discount"
									]
								}
							]
						},
						{
							"$multiply" : [
								"$ps_supplycost",
								"$lineitem.l_quantity"
							]
						}
					]
				}
			}
		},
		{
			"$group" : {
				"_id" : {
					"nation" : "$nation",
					"o_year" : "$o_year"
				},
				"sum_profit" : {
					"$sum" : "$amount"
				}
			}
		},
		{
			"$sort" : {
				"sortKey" : {
					"_id.nation" : 1,
					"_id.o_year" : -1
				}
			}
		}
	],
	"serverInfo" : {
		"host" : "dblab.cecsresearch.org",
		"port" : 27017,
		"version" : "4.0.19",
		"gitVersion" : "7e28f4296a04d858a2e3dd84a1e79c9ba59a9568"
	},
	"ok" : 1
}


{
	"stages" : [
		{
			"$cursor" : {
				"query" : {
					"p_name" : /.*yellow.*/
				},
				"fields" : {
					"lineitem" : 1,
					"p_suppliers" : 1,
					"_id" : 1
				},
				"queryPlanner" : {
					"plannerVersion" : 1,
					"namespace" : "tpch_1.part",
					"indexFilterSet" : false,
					"parsedQuery" : {
						"p_name" : {
							"$regex" : ".*yellow.*"
						}
					},
					"winningPlan" : {
						"stage" : "COLLSCAN",
						"filter" : {
							"p_name" : {
								"$regex" : ".*yellow.*"
							}
						},
						"direction" : "forward"
					},
					"rejectedPlans" : [ ]
				},
				"executionStats" : {
					"executionSuccess" : true,
					"nReturned" : 108810,
					"executionTimeMillis" : 1663913,
					"totalKeysExamined" : 0,
					"totalDocsExamined" : 2000000,
					"executionStages" : {
						"stage" : "COLLSCAN",
						"filter" : {
							"p_name" : {
								"$regex" : ".*yellow.*"
							}
						},
						"nReturned" : 108810,
						"executionTimeMillisEstimate" : 1926,
						"works" : 2000002,
						"advanced" : 108810,
						"needTime" : 1891191,
						"needYield" : 0,
						"saveState" : 15725,
						"restoreState" : 15725,
						"isEOF" : 1,
						"invalidates" : 0,
						"direction" : "forward",
						"docsExamined" : 2000000
					},
					"allPlansExecution" : [ ]
				}
			}
		},
		{
			"$lookup" : {
				"from" : "lineitem",
				"as" : "lineitem",
				"localField" : "_id",
				"foreignField" : "l_partkey"
			}
		},
		{
			"$unwind" : {
				"path" : "$p_suppliers"
			}
		},
		{
			"$project" : {
				"_id" : true,
				"lineitem" : true,
				"p_partkey" : "$_id",
				"ps_supplycost" : "$p_suppliers.ps_supplycost",
				"ps_suppkey" : "$p_suppliers.ps_suppkey"
			}
		},
		{
			"$lookup" : {
				"from" : "supplier",
				"as" : "supplier",
				"localField" : "ps_suppkey",
				"foreignField" : "_id",
				"unwinding" : {
					"preserveNullAndEmptyArrays" : false
				}
			}
		},
		{
			"$match" : {
				"$expr" : {
					"$in" : [
						"$p_partkey",
						"$supplier.s_parts"
					]
				}
			}
		},
		{
			"$project" : {
				"_id" : true,
				"ps_suppkey" : true,
				"ps_supplycost" : true,
				"p_partkey" : true,
				"n_nation" : "$supplier.s_nation.n_name",
				"lineitem" : {
					"$filter" : {
						"input" : "$lineitem",
						"as" : "l",
						"cond" : {
							"$eq" : [
								"$$l.l_suppkey",
								"$ps_suppkey"
							]
						}
					}
				}
			}
		},
		{
			"$unwind" : {
				"path" : "$lineitem"
			}
		},
		{
			"$lookup" : {
				"from" : "orders",
				"as" : "order",
				"localField" : "lineitem._id.l_orderkey",
				"foreignField" : "_id",
				"unwinding" : {
					"preserveNullAndEmptyArrays" : false
				}
			}
		},
		{
			"$project" : {
				"_id" : true,
				"nation" : "$n_nation",
				"o_year" : {
					"$year" : {
						"date" : "$order.o_orderdate"
					}
				},
				"amount" : {
					"$subtract" : [
						{
							"$multiply" : [
								"$lineitem.l_extendedprice",
								{
									"$subtract" : [
										{
											"$const" : 1
										},
										"$lineitem.l_discount"
									]
								}
							]
						},
						{
							"$multiply" : [
								"$ps_supplycost",
								"$lineitem.l_quantity"
							]
						}
					]
				}
			}
		},
		{
			"$group" : {
				"_id" : {
					"nation" : "$nation",
					"o_year" : "$o_year"
				},
				"sum_profit" : {
					"$sum" : "$amount"
				}
			}
		},
		{
			"$sort" : {
				"sortKey" : {
					"_id.nation" : 1,
					"_id.o_year" : -1
				}
			}
		}
	],
	"serverInfo" : {
		"host" : "dblab.cecsresearch.org",
		"port" : 27017,
		"version" : "4.0.19",
		"gitVersion" : "7e28f4296a04d858a2e3dd84a1e79c9ba59a9568"
	},
	"ok" : 1
}


{
	"stages" : [
		{
			"$cursor" : {
				"query" : {
					"p_name" : /.*yellow.*/
				},
				"fields" : {
					"lineitem" : 1,
					"p_suppliers" : 1,
					"_id" : 1
				},
				"queryPlanner" : {
					"plannerVersion" : 1,
					"namespace" : "tpch_1.part",
					"indexFilterSet" : false,
					"parsedQuery" : {
						"p_name" : {
							"$regex" : ".*yellow.*"
						}
					},
					"winningPlan" : {
						"stage" : "COLLSCAN",
						"filter" : {
							"p_name" : {
								"$regex" : ".*yellow.*"
							}
						},
						"direction" : "forward"
					},
					"rejectedPlans" : [ ]
				},
				"executionStats" : {
					"executionSuccess" : true,
					"nReturned" : 108810,
					"executionTimeMillis" : 1658999,
					"totalKeysExamined" : 0,
					"totalDocsExamined" : 2000000,
					"executionStages" : {
						"stage" : "COLLSCAN",
						"filter" : {
							"p_name" : {
								"$regex" : ".*yellow.*"
							}
						},
						"nReturned" : 108810,
						"executionTimeMillisEstimate" : 1851,
						"works" : 2000002,
						"advanced" : 108810,
						"needTime" : 1891191,
						"needYield" : 0,
						"saveState" : 15725,
						"restoreState" : 15725,
						"isEOF" : 1,
						"invalidates" : 0,
						"direction" : "forward",
						"docsExamined" : 2000000
					},
					"allPlansExecution" : [ ]
				}
			}
		},
		{
			"$lookup" : {
				"from" : "lineitem",
				"as" : "lineitem",
				"localField" : "_id",
				"foreignField" : "l_partkey"
			}
		},
		{
			"$unwind" : {
				"path" : "$p_suppliers"
			}
		},
		{
			"$project" : {
				"_id" : true,
				"lineitem" : true,
				"p_partkey" : "$_id",
				"ps_supplycost" : "$p_suppliers.ps_supplycost",
				"ps_suppkey" : "$p_suppliers.ps_suppkey"
			}
		},
		{
			"$lookup" : {
				"from" : "supplier",
				"as" : "supplier",
				"localField" : "ps_suppkey",
				"foreignField" : "_id",
				"unwinding" : {
					"preserveNullAndEmptyArrays" : false
				}
			}
		},
		{
			"$match" : {
				"$expr" : {
					"$in" : [
						"$p_partkey",
						"$supplier.s_parts"
					]
				}
			}
		},
		{
			"$project" : {
				"_id" : true,
				"ps_suppkey" : true,
				"ps_supplycost" : true,
				"p_partkey" : true,
				"n_nation" : "$supplier.s_nation.n_name",
				"lineitem" : {
					"$filter" : {
						"input" : "$lineitem",
						"as" : "l",
						"cond" : {
							"$eq" : [
								"$$l.l_suppkey",
								"$ps_suppkey"
							]
						}
					}
				}
			}
		},
		{
			"$unwind" : {
				"path" : "$lineitem"
			}
		},
		{
			"$lookup" : {
				"from" : "orders",
				"as" : "order",
				"localField" : "lineitem._id.l_orderkey",
				"foreignField" : "_id",
				"unwinding" : {
					"preserveNullAndEmptyArrays" : false
				}
			}
		},
		{
			"$project" : {
				"_id" : true,
				"nation" : "$n_nation",
				"o_year" : {
					"$year" : {
						"date" : "$order.o_orderdate"
					}
				},
				"amount" : {
					"$subtract" : [
						{
							"$multiply" : [
								"$lineitem.l_extendedprice",
								{
									"$subtract" : [
										{
											"$const" : 1
										},
										"$lineitem.l_discount"
									]
								}
							]
						},
						{
							"$multiply" : [
								"$ps_supplycost",
								"$lineitem.l_quantity"
							]
						}
					]
				}
			}
		},
		{
			"$group" : {
				"_id" : {
					"nation" : "$nation",
					"o_year" : "$o_year"
				},
				"sum_profit" : {
					"$sum" : "$amount"
				}
			}
		},
		{
			"$sort" : {
				"sortKey" : {
					"_id.nation" : 1,
					"_id.o_year" : -1
				}
			}
		}
	],
	"serverInfo" : {
		"host" : "dblab.cecsresearch.org",
		"port" : 27017,
		"version" : "4.0.19",
		"gitVersion" : "7e28f4296a04d858a2e3dd84a1e79c9ba59a9568"
	},
	"ok" : 1
}


{
	"stages" : [
		{
			"$cursor" : {
				"query" : {
					"p_name" : /.*yellow.*/
				},
				"fields" : {
					"lineitem" : 1,
					"p_suppliers" : 1,
					"_id" : 1
				},
				"queryPlanner" : {
					"plannerVersion" : 1,
					"namespace" : "tpch_1.part",
					"indexFilterSet" : false,
					"parsedQuery" : {
						"p_name" : {
							"$regex" : ".*yellow.*"
						}
					},
					"winningPlan" : {
						"stage" : "COLLSCAN",
						"filter" : {
							"p_name" : {
								"$regex" : ".*yellow.*"
							}
						},
						"direction" : "forward"
					},
					"rejectedPlans" : [ ]
				},
				"executionStats" : {
					"executionSuccess" : true,
					"nReturned" : 108810,
					"executionTimeMillis" : 1662658,
					"totalKeysExamined" : 0,
					"totalDocsExamined" : 2000000,
					"executionStages" : {
						"stage" : "COLLSCAN",
						"filter" : {
							"p_name" : {
								"$regex" : ".*yellow.*"
							}
						},
						"nReturned" : 108810,
						"executionTimeMillisEstimate" : 1545,
						"works" : 2000002,
						"advanced" : 108810,
						"needTime" : 1891191,
						"needYield" : 0,
						"saveState" : 15721,
						"restoreState" : 15721,
						"isEOF" : 1,
						"invalidates" : 0,
						"direction" : "forward",
						"docsExamined" : 2000000
					},
					"allPlansExecution" : [ ]
				}
			}
		},
		{
			"$lookup" : {
				"from" : "lineitem",
				"as" : "lineitem",
				"localField" : "_id",
				"foreignField" : "l_partkey"
			}
		},
		{
			"$unwind" : {
				"path" : "$p_suppliers"
			}
		},
		{
			"$project" : {
				"_id" : true,
				"lineitem" : true,
				"p_partkey" : "$_id",
				"ps_supplycost" : "$p_suppliers.ps_supplycost",
				"ps_suppkey" : "$p_suppliers.ps_suppkey"
			}
		},
		{
			"$lookup" : {
				"from" : "supplier",
				"as" : "supplier",
				"localField" : "ps_suppkey",
				"foreignField" : "_id",
				"unwinding" : {
					"preserveNullAndEmptyArrays" : false
				}
			}
		},
		{
			"$match" : {
				"$expr" : {
					"$in" : [
						"$p_partkey",
						"$supplier.s_parts"
					]
				}
			}
		},
		{
			"$project" : {
				"_id" : true,
				"ps_suppkey" : true,
				"ps_supplycost" : true,
				"p_partkey" : true,
				"n_nation" : "$supplier.s_nation.n_name",
				"lineitem" : {
					"$filter" : {
						"input" : "$lineitem",
						"as" : "l",
						"cond" : {
							"$eq" : [
								"$$l.l_suppkey",
								"$ps_suppkey"
							]
						}
					}
				}
			}
		},
		{
			"$unwind" : {
				"path" : "$lineitem"
			}
		},
		{
			"$lookup" : {
				"from" : "orders",
				"as" : "order",
				"localField" : "lineitem._id.l_orderkey",
				"foreignField" : "_id",
				"unwinding" : {
					"preserveNullAndEmptyArrays" : false
				}
			}
		},
		{
			"$project" : {
				"_id" : true,
				"nation" : "$n_nation",
				"o_year" : {
					"$year" : {
						"date" : "$order.o_orderdate"
					}
				},
				"amount" : {
					"$subtract" : [
						{
							"$multiply" : [
								"$lineitem.l_extendedprice",
								{
									"$subtract" : [
										{
											"$const" : 1
										},
										"$lineitem.l_discount"
									]
								}
							]
						},
						{
							"$multiply" : [
								"$ps_supplycost",
								"$lineitem.l_quantity"
							]
						}
					]
				}
			}
		},
		{
			"$group" : {
				"_id" : {
					"nation" : "$nation",
					"o_year" : "$o_year"
				},
				"sum_profit" : {
					"$sum" : "$amount"
				}
			}
		},
		{
			"$sort" : {
				"sortKey" : {
					"_id.nation" : 1,
					"_id.o_year" : -1
				}
			}
		}
	],
	"serverInfo" : {
		"host" : "dblab.cecsresearch.org",
		"port" : 27017,
		"version" : "4.0.19",
		"gitVersion" : "7e28f4296a04d858a2e3dd84a1e79c9ba59a9568"
	},
	"ok" : 1
}


